test/test.sim/sim_1/behav/graycounter.vcd
$date
   Thu Mar  2 14:45:12 2017
$end
$version
  13.1
$end
$timescale
  1ps
$end
$scope module gray_code_counter_tb $end
$var reg 1 ! clk $end
$var reg 1 " async_reset $end
$var reg 1 # enable $end
$var wire 2 $ res [1:0] $end
$scope module count $end
$var wire 1 % clk $end
$var wire 1 & async_reset $end
$var wire 1 ' enable $end
$var reg 2 ( count [1:0] $end
$var reg 2 ) tmp [1:0] $end
$upscope $end
$upscope $end
$enddefinitions $end
#0
$dumpvars
0!
0"
1#
b0 $
0%
0&
1'
b0 (
b1 )
$end
#5000
1!
b1 $
1%
b1 (
b11 )
#10000
0!
0"
0%
#15000
1!
b11 $
1%
b11 (
b10 )
#20000
0!
0"
0%
#25000
1!
b10 $
1%
b10 (
b0 )
#30000
0!
0"
0%
#35000
1!
b0 $
1%
b0 (
b1 )
#40000
0!
0"
0%
#45000
1!
b1 $
1%
b1 (
b11 )
#50000
0!
0"
0%
#55000
1!
b11 $
1%
b11 (
b10 )
#60000
0!
0"
0%
#65000
1!
b10 $
1%
b10 (
b0 )
#70000
0!
0"
0%
#75000
1!
b0 $
1%
b0 (
b1 )
#80000
0!
0"
0%
#85000
1!
b1 $
1%
b1 (
b11 )
#90000
0!
0"
0%
#95000
1!
b11 $
1%
b11 (
b10 )
