matrixMul/matrixMul.sim/sim_1/behav/graycounter.vcd
$date
   Thu Mar  2 15:58:32 2017
$end
$version
  13.1
$end
$timescale
  1ps
$end
$scope module Mat_mul_TB $end
$var reg 8 ! A [7:0] $end
$var reg 8 " B [7:0] $end
$var reg 1 # clk $end
$var reg 1 $ reset $end
$var reg 1 % async_reset $end
$var wire 64 & Res [63:0] $end
$var parameter 32 ' WIDTH [31:0] $end
$scope module mm $end
$var wire 8 ( A [7:0] $end
$var wire 8 ) B [7:0] $end
$var wire 1 * clk $end
$var wire 1 + reset $end
$var reg 8 , A1 [0:1] $end
$var reg 8 - B1 [0:1] $end
$var wire 128 . product [0:1] $end
$var wire 64 / Res1 [0:1] $end
$var wire 64 0 Res [63:0] $end
$var parameter 32 1 WIDTH [31:0] $end
$scope module genblk1[0].genblk1[0].genblk1[0].m1 $end
$var wire 1 2 clk $end
$var wire 8 3 dataa [7:0] $end
$var wire 8 4 datab [7:0] $end
$var wire 16 5 res [15:0] $end
$var reg 8 6 rA [7:0] $end
$var reg 8 7 rB [7:0] $end
$var reg 64 8 M [3:0] $end
$var integer 32 9 i $end
$var parameter 32 : WIDTH [31:0] $end
$var parameter 32 ; MULT_LATENCY [31:0] $end
$upscope $end
$scope module genblk1[0].genblk1[0].genblk1[1].m1 $end
$var wire 1 < clk $end
$var wire 8 = dataa [7:0] $end
$var wire 8 > datab [7:0] $end
$var wire 16 ? res [15:0] $end
$var reg 8 @ rA [7:0] $end
$var reg 8 A rB [7:0] $end
$var reg 64 B M [3:0] $end
$var integer 32 C i $end
$var parameter 32 D WIDTH [31:0] $end
$var parameter 32 E MULT_LATENCY [31:0] $end
$upscope $end
$scope module genblk1[0].genblk1[1].genblk1[0].m1 $end
$var wire 1 F clk $end
$var wire 8 G dataa [7:0] $end
$var wire 8 H datab [7:0] $end
$var wire 16 I res [15:0] $end
$var reg 8 J rA [7:0] $end
$var reg 8 K rB [7:0] $end
$var reg 64 L M [3:0] $end
$var integer 32 M i $end
$var parameter 32 N WIDTH [31:0] $end
$var parameter 32 O MULT_LATENCY [31:0] $end
$upscope $end
$scope module genblk1[0].genblk1[1].genblk1[1].m1 $end
$var wire 1 P clk $end
$var wire 8 Q dataa [7:0] $end
$var wire 8 R datab [7:0] $end
$var wire 16 S res [15:0] $end
$var reg 8 T rA [7:0] $end
$var reg 8 U rB [7:0] $end
$var reg 64 V M [3:0] $end
$var integer 32 W i $end
$var parameter 32 X WIDTH [31:0] $end
$var parameter 32 Y MULT_LATENCY [31:0] $end
$upscope $end
$scope module genblk1[1].genblk1[0].genblk1[0].m1 $end
$var wire 1 Z clk $end
$var wire 8 [ dataa [7:0] $end
$var wire 8 \ datab [7:0] $end
$var wire 16 ] res [15:0] $end
$var reg 8 ^ rA [7:0] $end
$var reg 8 _ rB [7:0] $end
$var reg 64 ` M [3:0] $end
$var integer 32 a i $end
$var parameter 32 b WIDTH [31:0] $end
$var parameter 32 c MULT_LATENCY [31:0] $end
$upscope $end
$scope module genblk1[1].genblk1[0].genblk1[1].m1 $end
$var wire 1 d clk $end
$var wire 8 e dataa [7:0] $end
$var wire 8 f datab [7:0] $end
$var wire 16 g res [15:0] $end
$var reg 8 h rA [7:0] $end
$var reg 8 i rB [7:0] $end
$var reg 64 j M [3:0] $end
$var integer 32 k i $end
$var parameter 32 l WIDTH [31:0] $end
$var parameter 32 m MULT_LATENCY [31:0] $end
$upscope $end
$scope module genblk1[1].genblk1[1].genblk1[0].m1 $end
$var wire 1 n clk $end
$var wire 8 o dataa [7:0] $end
$var wire 8 p datab [7:0] $end
$var wire 16 q res [15:0] $end
$var reg 8 r rA [7:0] $end
$var reg 8 s rB [7:0] $end
$var reg 64 t M [3:0] $end
$var integer 32 u i $end
$var parameter 32 v WIDTH [31:0] $end
$var parameter 32 w MULT_LATENCY [31:0] $end
$upscope $end
$scope module genblk1[1].genblk1[1].genblk1[1].m1 $end
$var wire 1 x clk $end
$var wire 8 y dataa [7:0] $end
$var wire 8 z datab [7:0] $end
$var wire 16 { res [15:0] $end
$var reg 8 | rA [7:0] $end
$var reg 8 } rB [7:0] $end
$var reg 64 ~ M [3:0] $end
$var integer 32 !! i $end
$var parameter 32 "! WIDTH [31:0] $end
$var parameter 32 #! MULT_LATENCY [31:0] $end
$upscope $end
$upscope $end
$upscope $end
$enddefinitions $end
#0
$dumpvars
b11011 !
bx !!
b11011 "
b1000 "!
0#
b11 #!
0$
0%
bx &
b1000 '
b11011 (
b11011 )
0*
0+
b11011 ,
b11011 -
bx .
bx /
bx 0
b1000 1
02
b0 3
b0 4
bx 5
bx 6
bx 7
bx 8
bx 9
b1000 :
b11 ;
0<
b1 =
b10 >
bx ?
bx @
bx A
bx B
bx C
b1000 D
b11 E
0F
b0 G
b1 H
bx I
bx J
bx K
bx L
bx M
b1000 N
b11 O
0P
b1 Q
b11 R
bx S
bx T
bx U
bx V
bx W
b1000 X
b11 Y
0Z
b10 [
b0 \
bx ]
bx ^
bx _
bx `
bx a
b1000 b
b11 c
0d
b11 e
b10 f
bx g
bx h
bx i
bx j
bx k
b1000 l
b11 m
0n
b10 o
b1 p
bx q
bx r
bx s
bx t
bx u
b1000 v
b11 w
0x
b11 y
b11 z
bx {
bx |
bx }
bx ~
$end
#5000
b11 !!
1#
1*
12
b0 6
b0 7
bx 8
b11 9
1<
b1 @
b10 A
bx B
b11 C
1F
b0 J
b1 K
bx L
b11 M
1P
b1 T
b11 U
bx V
b11 W
1Z
b10 ^
b0 _
bx `
b11 a
1d
b11 h
b10 i
bx j
b11 k
1n
b10 r
b1 s
bx t
b11 u
1x
b11 |
b11 }
bx ~
#10000
0#
0%
0*
02
0<
0F
0P
0Z
0d
0n
0x
#15000
b11 !!
1#
1*
12
b0 6
b0 7
bx0000000000000000 8
b11 9
1<
b1 @
b10 A
bx0000000000000010 B
b11 C
1F
b0 J
b1 K
bx0000000000000000 L
b11 M
1P
b1 T
b11 U
bx0000000000000011 V
b11 W
1Z
b10 ^
b0 _
bx0000000000000000 `
b11 a
1d
b11 h
b10 i
bx0000000000000110 j
b11 k
1n
b10 r
b1 s
bx0000000000000010 t
b11 u
1x
b11 |
b11 }
bx0000000000001001 ~
#20000
0#
0%
0*
02
0<
0F
0P
0Z
0d
0n
0x
#25000
b11 !!
1#
1*
12
b0 6
b0 7
bx00000000000000000000000000000000 8
b11 9
1<
b1 @
b10 A
bx00000000000000100000000000000010 B
b11 C
1F
b0 J
b1 K
bx00000000000000000000000000000000 L
b11 M
1P
b1 T
b11 U
bx00000000000000110000000000000011 V
b11 W
1Z
b10 ^
b0 _
bx00000000000000000000000000000000 `
b11 a
1d
b11 h
b10 i
bx00000000000001100000000000000110 j
b11 k
1n
b10 r
b1 s
bx00000000000000100000000000000010 t
b11 u
1x
b11 |
b11 }
bx00000000000010010000000000001001 ~
#30000
0#
0%
0*
02
0<
0F
0P
0Z
0d
0n
0x
#35000
b11 !!
1#
1*
12
b0 6
b0 7
bx000000000000000000000000000000000000000000000000 8
b11 9
1<
b1 @
b10 A
bx000000000000001000000000000000100000000000000010 B
b11 C
1F
b0 J
b1 K
bx000000000000000000000000000000000000000000000000 L
b11 M
1P
b1 T
b11 U
bx000000000000001100000000000000110000000000000011 V
b11 W
1Z
b10 ^
b0 _
bx000000000000000000000000000000000000000000000000 `
b11 a
1d
b11 h
b10 i
bx000000000000011000000000000001100000000000000110 j
b11 k
1n
b10 r
b1 s
bx000000000000001000000000000000100000000000000010 t
b11 u
1x
b11 |
b11 }
bx000000000000100100000000000010010000000000001001 ~
#40000
0#
0%
0*
02
0<
0F
0P
0Z
0d
0n
0x
#45000
b11 !!
1#
b10000000000000001100000000000001100000000000001011 &
1*
b10000000000000000000000000000000110000000000000000000000000000011000000000000000100000000000001001 .
b10000000000000001100000000000001100000000000001011 /
b10000000000000001100000000000001100000000000001011 0
12
b0 5
b0 6
b0 7
b0 8
b11 9
1<
b10 ?
b1 @
b10 A
b10000000000000001000000000000000100000000000000010 B
b11 C
1F
b0 I
b0 J
b1 K
b0 L
b11 M
1P
b11 S
b1 T
b11 U
b11000000000000001100000000000000110000000000000011 V
b11 W
1Z
b0 ]
b10 ^
b0 _
b0 `
b11 a
1d
b110 g
b11 h
b10 i
b110000000000000011000000000000001100000000000000110 j
b11 k
1n
b10 q
b10 r
b1 s
b10000000000000001000000000000000100000000000000010 t
b11 u
1x
b1001 {
b11 |
b11 }
b1001000000000000100100000000000010010000000000001001 ~
#50000
0#
0%
0*
02
0<
0F
0P
0Z
0d
0n
0x
#55000
b11 !!
1#
1*
12
b0 6
b0 7
b0 8
b11 9
1<
b1 @
b10 A
b10000000000000001000000000000000100000000000000010 B
b11 C
1F
b0 J
b1 K
b0 L
b11 M
1P
b1 T
b11 U
b11000000000000001100000000000000110000000000000011 V
b11 W
1Z
b10 ^
b0 _
b0 `
b11 a
1d
b11 h
b10 i
b110000000000000011000000000000001100000000000000110 j
b11 k
1n
b10 r
b1 s
b10000000000000001000000000000000100000000000000010 t
b11 u
1x
b11 |
b11 }
b1001000000000000100100000000000010010000000000001001 ~
#60000
0#
0%
0*
02
0<
0F
0P
0Z
0d
0n
0x
#65000
b11 !!
1#
1*
12
b0 6
b0 7
b0 8
b11 9
1<
b1 @
b10 A
b10000000000000001000000000000000100000000000000010 B
b11 C
1F
b0 J
b1 K
b0 L
b11 M
1P
b1 T
b11 U
b11000000000000001100000000000000110000000000000011 V
b11 W
1Z
b10 ^
b0 _
b0 `
b11 a
1d
b11 h
b10 i
b110000000000000011000000000000001100000000000000110 j
b11 k
1n
b10 r
b1 s
b10000000000000001000000000000000100000000000000010 t
b11 u
1x
b11 |
b11 }
b1001000000000000100100000000000010010000000000001001 ~
#70000
0#
0%
0*
02
0<
0F
0P
0Z
0d
0n
0x
#75000
b11 !!
1#
1*
12
b0 6
b0 7
b0 8
b11 9
1<
b1 @
b10 A
b10000000000000001000000000000000100000000000000010 B
b11 C
1F
b0 J
b1 K
b0 L
b11 M
1P
b1 T
b11 U
b11000000000000001100000000000000110000000000000011 V
b11 W
1Z
b10 ^
b0 _
b0 `
b11 a
1d
b11 h
b10 i
b110000000000000011000000000000001100000000000000110 j
b11 k
1n
b10 r
b1 s
b10000000000000001000000000000000100000000000000010 t
b11 u
1x
b11 |
b11 }
b1001000000000000100100000000000010010000000000001001 ~
#80000
0#
0%
0*
02
0<
0F
0P
0Z
0d
0n
0x
#85000
b11 !!
1#
1*
12
b0 6
b0 7
b0 8
b11 9
1<
b1 @
b10 A
b10000000000000001000000000000000100000000000000010 B
b11 C
1F
b0 J
b1 K
b0 L
b11 M
1P
b1 T
b11 U
b11000000000000001100000000000000110000000000000011 V
b11 W
1Z
b10 ^
b0 _
b0 `
b11 a
1d
b11 h
b10 i
b110000000000000011000000000000001100000000000000110 j
b11 k
1n
b10 r
b1 s
b10000000000000001000000000000000100000000000000010 t
b11 u
1x
b11 |
b11 }
b1001000000000000100100000000000010010000000000001001 ~
#90000
0#
0%
0*
02
0<
0F
0P
0Z
0d
0n
0x
